{
    "id": 897035,
    "status": "success",
    "stage": "test",
    "name": "test x86_64",
    "ref": "kernel-rt-rhel8",
    "tag": false,
    "coverage": null,
    "allow_failure": false,
    "created_at": "2020-06-09T07:53:05.474Z",
    "started_at": "2020-06-09T07:57:21.969Z",
    "finished_at": "2020-06-09T14:56:23.497Z",
    "duration": 25141.5273,
    "user": {
        "id": 34,
        "name": "CKI Bot",
        "username": "cki-bot",
        "state": "active",
        "avatar_url": "https://secure.gravatar.com/avatar/1d5811382e7ef0cd8f30ebbe1c252eba?s=80&d=identicon",
        "web_url": "https://gitlab/cki-bot",
        "created_at": "2018-11-29T14:12:44.544Z",
        "bio": "",
        "location": "",
        "public_email": "",
        "skype": "",
        "linkedin": "",
        "twitter": "",
        "website_url": "",
        "organization": "",
        "job_title": ""
    },
    "commit": {
        "id": "93a8b317b8eec6cc87c896ce56457824c9ef231c",
        "short_id": "93a8b317",
        "created_at": "2020-06-09T07:53:03.000+00:00",
        "parent_ids": [
            "6256a1c3a648a5de8b0525b59266587b7620d57e"
        ],
        "title": "Brew: Task 29202630",
        "message": "Brew: Task 29202630\n\n",
        "author_name": "CKI Bot",
        "author_email": "34-cki-bot@users.noreply.gitlab",
        "authored_date": "2020-06-09T07:53:03.000+00:00",
        "committer_name": "CKI Bot",
        "committer_email": "34-cki-bot@users.noreply.gitlab",
        "committed_date": "2020-06-09T07:53:03.000+00:00",
        "web_url": "https://gitlab/cki-project/brew-pipeline/-/commit/93a8b317b8eec6cc87c896ce56457824c9ef231c"
    },
    "pipeline": {
        "id": 596980,
        "sha": "93a8b317b8eec6cc87c896ce56457824c9ef231c",
        "ref": "kernel-rt-rhel8",
        "status": "success",
        "created_at": "2020-06-09T07:53:05.328Z",
        "updated_at": "2020-06-09T14:56:23.594Z",
        "web_url": "https://gitlab/cki-project/brew-pipeline/pipelines/596980"
    },
    "web_url": "https://gitlab/cki-project/brew-pipeline/-/jobs/897035",
    "artifacts_file": {
        "filename": "artifacts.zip",
        "size": 5698315
    },
    "artifacts": [
        {
            "file_type": "archive",
            "size": 5698315,
            "filename": "artifacts.zip",
            "file_format": "zip"
        },
        {
            "file_type": "metadata",
            "size": 26715,
            "filename": "metadata.gz",
            "file_format": "gzip"
        },
        {
            "file_type": "trace",
            "size": 6035,
            "filename": "job.log",
            "file_format": null
        }
    ],
    "runner": {
        "id": 23,
        "description": "cki-xci30-docker-low",
        "ip_address": "1.2.3.4",
        "active": true,
        "is_shared": false,
        "name": null,
        "online": true,
        "status": "online"
    },
    "artifacts_expire_at": "2020-06-16T14:56:22.581Z"
}
